[{
  "user_id": 123,
  "name": "Константин Кипятков",
  "type": "student",
  "scores": [
    {
      "subject_id": 46,
      "lessons": [
        {
          "date": "2019-05-10T08:35:16.888Z",
          "score": 4,
          "id": 1101200
        },
        {
          "date": "2019-05-12T08:35:16.888Z",
          "score": 2,
          "id": 1086814
        },
        {
          "date": "2019-05-17T08:35:16.888Z",
          "score": 5,
          "id": 1080240
        },
        {
          "date": "2019-05-19T08:35:16.888Z",
          "score": -1,
          "id": 1078213
          
        }
      ]
    },
    {
      "subject_id": 56,
      "lessons": [
        {
          "date": "2019-05-11T08:35:16.888Z",
          "score": 3,
          "id": 354765
        },
        {
          "date": "2019-05-18T08:35:16.888Z",
          "score": 3,
          "id": 472288
        }
      ]
    },
    {
      "subject_id": 1,
      "lessons": [
        {
          "date": "2019-05-12T08:35:16.888Z",
          "score": 5,
          "id": 1093233
        },
        {
          "date": "2019-05-13T08:35:16.888Z",
          "score": -1,
          "id": 1092943
        },
        {
          "date": "2019-05-19T08:35:16.888Z",
          "score": -1,
          "id": 566663
        },
        {
          "date": "2019-05-20T08:35:16.888Z",
          "score": 2,
          "id": 489027
        }
      ]
    }
  ]
},
{
  "user_id": 678,
  "name": "Светлана Синичкина",
  "type": "student",
  "scores": [
    {
      "subject_id": 46,
      "lessons": [
        {
          "date": "2019-05-10T08:35:16.888Z",
          "score": -1,
          "id": 1101200
        },
        {
          "date": "2019-05-17T08:35:16.888Z",
          "score": 5,
          "id": 1078213
        }
      ]
    },
    {
      "subject_id": 56,
      "lessons": [
        {
          "date": "2019-05-11T08:35:16.888Z",
          "score": 4,
          "id": 472288
        },
        {
          "date": "2019-05-18T08:35:16.888Z",
          "score": 4,
          "id": 772414
        }
      ]
    },
    {
      "subject_id": 1,
      "lessons": [
        {
          "date": "2019-05-09T08:35:16.888Z",
          "score": 2,
          "id": 1093233
        },
        {
          "date": "2019-05-16T08:35:16.888Z",
          "score": 2,
          "id": 489027
        }
      ]
    }
  ]
}
]
